"SIGLA_UF_","tested","detected","detectedPct"
"AC",1,1,100
"BA",17402,16612,95.46
"CE",737,17,2.31
"ES",8530,3395,39.8
"GO",22950,1645,7.17
"MG",42455,21724,51.17
"MS",29742,6816,22.92
"MT",13226,4030,30.47
"PI",1,1,100
"PR",113996,9608,8.43
"RJ",11732,3452,29.42
"RO",58,57,98.28
"RS",31059,1532,4.93
"SC",60094,15944,26.53
"SE",2623,2354,89.74
"SP",472554,113980,24.12
"TO",24215,119,0.49
