"SIGLA_UF_","tested","detected","detectedPct"
"AC",1,1,100
"AL",104,104,100
"AM",513,513,100
"BA",17402,16672,95.81
"CE",737,636,86.3
"ES",8530,7469,87.56
"GO",22950,4457,19.42
"MA",44,44,100
"MG",42455,33379,78.62
"MS",29742,29709,99.89
"MT",13226,11755,88.88
"PA",336,336,100
"PB",1689,1684,99.7
"PI",1,1,100
"PR",113996,101603,89.13
"RJ",11732,11264,96.01
"RO",58,57,98.28
"RR",79,79,100
"RS",31059,7348,23.66
"SC",60094,57859,96.28
"SE",2623,2600,99.12
"SP",472554,427121,90.39
"TO",24215,24096,99.51
